Motor third-part liability
…
Test obs-vs-pred values. (a) using the log-10 units as predicted. (b) back-transformed to the original values.

Model explanations / Variable importance

Linear Model:

# A tibble: 38 × 3
   name           value    abs
   <chr>          <dbl>  <dbl>
 1 (Intercept)   3.15   3.15  
 2 BonusMalus    0.407  0.407 
 3 Exposure     -0.271  0.271 
 4 Region_R43    0.158  0.158 
 5 Region_R94    0.117  0.117 
 6 Region_R83   -0.0680 0.0680
 7 Region_R21   -0.0664 0.0664
 8 Region_R41    0.0647 0.0647
 9 VehBrand_B11 -0.0548 0.0548
10 Region_R72    0.0474 0.0474
# ℹ 28 more rows
…
